<?xml version="1.0" encoding="utf-8"?>
<!-- Generator: Adobe Illustrator 24.2.2, SVG Export Plug-In . SVG Version: 6.00 Build 0)  -->
<svg version="1.1" id="Layer_1" xmlns="http://www.w3.org/2000/svg" xmlns:xlink="http://www.w3.org/1999/xlink" x="0px" y="0px"
	 viewBox="0 0 405 403" style="enable-background:new 0 0 405 403;" xml:space="preserve">
<style type="text/css">
	.st0{fill:#F2F2F2;}
	.st1{fill:none;stroke:#F2F2F2;stroke-width:8;stroke-miterlimit:10;stroke-dasharray:24.1563,36.2345;}
</style>
<g id="Group_1_1_" transform="translate(-445.83 -223.536)">
	<path id="Path_1_1_" class="st0" d="M612.92,300.95c4.07,2.61,8.11,5.27,12.22,7.82c2.35,1.45,5.87,2.15,7,4.2
		c2.95,5.05,5.05,10.55,6.21,16.29c0.28,1.65-4.78,5.76-7.69,6.07c-6.65,0.78-12.91-3.27-14.91-9.66h8.38
		c0.96-12.35-10.84-16.2-14.91-24.72L612.92,300.95z"/>
	<path id="Path_2_1_" class="st0" d="M612.55,549.12c-2.93-11.15-5.74-21.83-8.53-32.51c-0.31-1.2-1.06-2.55-0.77-3.59
		c5.66-20.29-4.91-34.39-17.93-47.61c-1.3-1.33-2.52-2.73-3.66-4.2c-0.3-0.38-0.19-1.08-0.44-2.86
		c20.03,6.01,27.32,22.88,36.2,38.82c0.81-21.75,0.58-43.25,12.41-62.7c-1.42,9.53-2.84,19.06-4.26,28.59
		c9.26-5.74,9.25-14.3,9.83-22.77c1.03-15.07,2.28-30.15,3.52-45.22c0.25-1.34,1.05-2.51,2.22-3.21c2.39,16.77,8.37,33.11,4.34,50.4
		c-4.91,21.05-8.71,42.34-21.53,60.84c-3.41,4.93-3.22,12.95-3.19,19.54C620.82,532.51,620.54,541.83,612.55,549.12z"/>
	<path id="Path_3_1_" class="st0" d="M588.6,386.58c18.32-11.45,36.8-22.68,54.79-34.58c2.66-2.77,4.16-6.44,4.19-10.28
		c-0.13-9.39,3.26-18.49,9.49-25.51l4.41,29.83l-2.66,0.94l-5.41-5.1c-3.09,5.93-5.6,12.15-7.49,18.57
		c-0.51,2.52,3.62,5.99,6.07,9.67c-5.66,0-11.11,0.06-16.57,0c-15.26-0.21-23.37,6.45-26.22,21.61c-1.07,5.68-2.16,11.36-3.5,18.39
		c-0.88-1.1-1.67-2.26-2.37-3.49c-5.65-15.1-6.77-15.41-19.06-5.14c-2.85,2.38-5.69,4.78-8.49,7.23c-2.76,2.83-6.17,4.94-9.94,6.15
		l17.59-23.28L588.6,386.58z"/>
	<path id="Path_4_1_" class="st0" d="M645.79,387.82c12.05,18.05,18.58,21.83,33.3,18.54l-18.23-27.63l2.74-2.22
		c11.28,19.57,36.43,23.88,47.06,43.06c-16.36-1.19-32.5-1.97-48.54-3.65C649.47,414.63,643.17,403.77,645.79,387.82z"/>
	<path id="Path_5_1_" class="st0" d="M656.5,360.56c2.76,0.89,5.48,1.91,8.28,2.66c2.8,0.75,5.72,0.96,8.61,0.61
		c-12.44-4.16-11.87-13.15-10.55-22.97c1.01-7.54,0.83-15.22,1.18-22.83l4.36,0.16c0.69,9.08,0.55,18.2-0.44,27.25
		c-1.05,5.48,0.53,6.89,4.22,9.22c13.74,8.68,27.3,17.63,40.51,27.55l-14.5-3.87l4.48,12.86c-4.35-3.38-8.35-4.99-9.78-7.88
		c-5-10.04-14-12.04-23.63-13.98c-4.83-1.37-9.53-3.15-14.06-5.32L656.5,360.56z"/>
	<path id="Path_6_1_" class="st0" d="M586.78,345.52l21.86,3.65l1.83-2.89l-19.79-37.58l0.36-1.12c4.71,3.81,9.04,8.07,12.93,12.72
		c6.65,9.6,14.45,16.55,26.52,18.18c3.57,1.22,6.93,3,9.95,5.26c-10.08,3.9-18.45,7.54-27.08,10.37
		C603.58,357.09,592.97,353.66,586.78,345.52z"/>
	<path id="Path_7_1_" class="st0" d="M588.6,386.58l-5.2,4.97c-21,4.71-32.77-3.23-31.92-21.55c0-0.44,0.57-0.86,0.89-1.3
		c15.23,14.63,20.42,14.84,38.92,2.43c4.59-2.99,9.78-4.94,15.21-5.71L588.6,386.58z"/>
	<path id="Path_8_1_" class="st0" d="M726.08,409.59c4.2,5,6.26,8.75,9.44,10.54c1.17,0.66,4.95-3.32,7.54-5.18l-1.23-2.29h-8.87
		c0.52-8.58-1.74-15.41-12.34-16.09l0.2-2.26c2.36-0.44,5.32-1.98,7-1.11c15.89,8.15,19.78,17.26,16.45,37.53
		c-1.91,0.49-3.96,0.98-6,1.55c-4.84,1.33-12.27,5.34-14.01,3.61c-4.43-5.35-7.46-11.71-8.82-18.52l10.64,9.59L726.08,409.59z"/>
	<path id="Path_9_1_" class="st0" d="M584.31,359.66l-5.09-12.36c17.47,19.37,36.96,7.24,55.86,2.48l0.73,3.96
		c-6.54,2.14-13.02,4.53-19.65,6.37c-9.47,2.62-19.21,4.34-28.55,7.36c-12.77,4.13-19.44,2.36-27.04-8.8
		c-3.45-4.96-6.55-10.15-9.28-15.54C561.99,348.99,566.33,366.51,584.31,359.66z"/>
	<path id="Path_10_1_" class="st0" d="M693.82,395.35l-19.33-16.19C688.92,376.63,688.83,389.12,693.82,395.35z"/>
</g>
<g>
	<circle class="st1" cx="202.5" cy="201.5" r="173">

		<animateTransform attributeName="transform"
			attributeType="XML"
			type="rotate"
			from="0 200 200"
			to="360 200 200"
			dur="10s"
			repeatCount="indefinite" />

	</circle>
</g>
</svg>
